%YAML 1.1
%TAG !u! tag:unity3d.com,2011:
--- !u!1045 &1
EditorBuildSettings:
  m_ObjectHideFlags: 0
  serializedVersion: 2
  m_Scenes:
  - enabled: 1
    path: Assets/Scenes/ProvaUI2.unity
    guid: 6fa4eda4f2cc0304da454590d8a9dd7a
  - enabled: 1
    path: Assets/Scenes/ProvaLivelli/Level 0.unity
    guid: 12851df8e3d744a3b939ee6d4e007b88
  - enabled: 1
    path: Assets/Scenes/ProvaLivelli/Level 0.5.unity
    guid: 05df1385eb43446379178066e098d18a
  - enabled: 1
    path: Assets/Scenes/ProvaLivelli/Level 1.unity
    guid: db974722234c445ab892f9673f6f402d
  - enabled: 1
    path: Assets/Scenes/ProvaLivelli/Level 2.unity
    guid: 262af01734a97449cbdc22ca1250454c
  - enabled: 1
    path: Assets/Scenes/ProvaLivelli/Level 3.unity
    guid: c13f116020fbe4758825baa049ea9688
  - enabled: 1
    path: Assets/Scenes/ProvaLivelli/Level 4.unity
    guid: 183bc1a8e842a43b9a8203f04cac1c9d
  - enabled: 1
    path: Assets/Scenes/ProvaLivelli/Level 5.unity
    guid: 48511dcdf1674415cb116b56b86c3936
  m_configObjects: {}
