%YAML 1.1
%TAG !u! tag:unity3d.com,2011:
--- !u!114 &11400000
MonoBehaviour:
  m_ObjectHideFlags: 0
  m_PrefabParentObject: {fileID: 0}
  m_PrefabInternal: {fileID: 0}
  m_GameObject: {fileID: 0}
  m_Enabled: 1
  m_EditorHideFlags: 0
  m_Script: {fileID: 11500000, guid: 4cc92aee616042a4aae2a7cebf7bc719, type: 3}
  m_Name: Livello 0.5
  m_EditorClassIdentifier: 
  size_grid_alt: 3
  size_grid_lun: 5
  size_grid_prof: 5
  posGrid: {x: 0, y: 0, z: 0}
  ListaObject:
  - id: 0
    GameType: {fileID: 1011996046555982, guid: 73e5cf4b227d7144e871577e5dc84510, type: 2}
    PosGame: {x: 0, y: 0, z: 0}
    RotGame: {x: 0, y: 45, z: 0}
  - id: 1
    GameType: {fileID: 1748130541704030, guid: ba8b89bf5efea004c9db90c9a0c69fe0, type: 2}
    PosGame: {x: 0, y: 0, z: 4}
    RotGame: {x: 0, y: 0, z: 0}
  collectables:
  - {fileID: 0}
